/Users/bhavan/Desktop/Eclipse Projetcs/Workspace 1/SwagLabAutomation/src/main/java/pages/LoginPage.java
/Users/bhavan/Desktop/Eclipse Projetcs/Workspace 1/SwagLabAutomation/src/main/java/pages/HomeProductPage.java
/Users/bhavan/Desktop/Eclipse Projetcs/Workspace 1/SwagLabAutomation/src/main/java/pages/CheckOutPage.java
/Users/bhavan/Desktop/Eclipse Projetcs/Workspace 1/SwagLabAutomation/src/main/java/pages/OverviewPage.java
/Users/bhavan/Desktop/Eclipse Projetcs/Workspace 1/SwagLabAutomation/src/main/java/pages/OrderCompletePage.java
/Users/bhavan/Desktop/Eclipse Projetcs/Workspace 1/SwagLabAutomation/src/main/java/pages/YourCartPage.java
